Many Data on State and State-Like Actors in the International System • manystates
…
Included data

Once you have installed the package, you can access the primary datacube in the package, states, as follows. You can see that currently the datacube combines three datasets: Gleditsch and Ward’s (1999) state list, the International System(s) Dataset (ISD) by Griffiths and Butcher (2013), and the GGO state list developed by the PANARCHIC team for this package.

manydata::describe_datacube(manystates::states)

## [1] "The `manystates::states` datacube is a list containing 3 datasets: ISD, GW, and GGO"

manystates::states

## $ISD
## # A tibble: 499 × 36
##    stateID StateName       Begin End   StateNameAlt Latitude Longitude StartType
##    <chr>   <chr>           <mda> <mda> <chr>        <chr>    <chr>         <dbl>
##  1 DEU     Germany         0006… 1945… Prussia      52 31 1… 13 24 18…         3
##  2 KOR     Korea           0676… 1905… Koryo, Chos… 37 34 0… 126 58 0…         4
##  3 JPN     Japan           0710… 1945… <NA>         35 41 2… 139 41 3…         1
##  4 CHI     Chien Khouang,… 0800… 1831… <NA>         19 19 2… 103 21 3…         2
##  5 KHM     Cambodia        0802… 1863… Khmer Kingd… 11 34 1… 104 55 1…         1
##  6 FRA     France          0843… 1942… <NA>         48 51 2… 2 21 8 E          3
##  7 DNK     Denmark         0950… 1940… <NA>         55 40 3… 12 34 6 E         1
##  8 GBR     United Kingdom  1066… 2016… <NA>         51 30 2… 0 7 39 W          1
##  9 TON     Tonga           1100… 1900… Kingdom Of … 21 8 0 S 175 12 0…         4
## 10 OWO     Owo             1150… 1893… <NA>         7 11 0 N 5 35 0 E          1
## # ℹ 489 more rows
## # ℹ 28 more variables: EndType <dbl>, cowID <chr>, cowNR <dbl>,
## #   ISD_Category <dbl>, Region <dbl>, Start_Am <dbl>, EStart_Am <dbl>,
## #   Declare <dbl>, DecDate <chr>, Population <chr>, PopDate <dbl>, PopAm <dbl>,
## #   PopulationHigh <dbl>, PopulationLow <dbl>, StartType_Am <dbl>,
## #   StartSettle <dbl>, End_Am <dbl>, EndType_Am <dbl>, EndSettle <dbl>,
## #   Sovereignty_Am <dbl>, EuroDip <dbl>, Borders <dbl>, Borders_Am <dbl>, …
## 
## $GW
## # A tibble: 216 × 7
##    stateID StateName       Begin        End          StateNameAlt cowID cowNR
##    <chr>   <chr>           <mdate>      <mdate>      <chr>        <chr> <chr>
##  1 AFG     Afghanistan     ..1816-01-01 1888-12-30   <NA>         AFG   700  
##  2 AUH     Austria-Hungary ..1816-01-01 1918-11-13   <NA>         AUH   300  
##  3 BAD     Baden           ..1816-01-01 1871-01-17   <NA>         BAD   267  
##  4 BAV     Bavaria         ..1816-01-01 1871-01-17   <NA>         BAV   245  
##  5 CHE     Switzerland     ..1816-01-01 2017-12-31.. <NA>         SWZ   225  
##  6 CHN     China           ..1816-01-01 2017-12-31.. <NA>         CHN   710  
##  7 DEU     Germany         ..1816-01-01 1945-05-07   Prussia      GMY   255  
##  8 DNK     Denmark         ..1816-01-01 2017-12-31.. <NA>         DEN   390  
##  9 DZA     Algeria         ..1816-01-01 1830-07-05   <NA>         ALG   615  
## 10 ESP     Spain           ..1816-01-01 2017-12-31.. <NA>         SPN   230  
## # ℹ 206 more rows
## 
## $GGO
## # A tibble: 409 × 13
##    stateID StateName  Capital Begin End   Latitude Longitude Region StateNameAlt
##    <chr>   <chr>      <chr>   <mda> <mda>    <dbl>     <dbl> <chr>  <chr>       
##  1 ITA     Italy      Rome    -075… 9999…     41.9    12.5   Weste… <NA>        
##  2 SMR     San Marino San Ma… 0301… 9999…     43.9    12.4   South… <NA>        
##  3 BGR     Bulgaria   Sofia   0681… 1018…     42.7    23.3   South… <NA>        
##  4 ABK     Abkhazia   Anakop… 0778… 1008…     43.0    41.0   Weste… Kingdom of …
##  5 DNK     Denmark    Copenh… 0793… 9999…     55.7    12.6   North… <NA>        
##  6 FRA     France     Paris   0843… 9999…     48.9     2.35  Weste… <NA>        
##  7 HRV     Croatia    Zagreb  0879… 1102…     45.8    16.0   South… <NA>        
##  8 CHM     Chamba     Chamba  0920… 1846…     32.6    76.1   South… <NA>        
##  9 GBR     United Ki… London  0927… 9999…     51.5    -0.128 Weste… <NA>        
## 10 DRV     Annam      Hue     0939… 1883…     16.5   108.    South… <NA>        
## # ℹ 399 more rows
## # ℹ 4 more variables: CapitalAlt <chr>, Coder <chr>, Comments <chr>,
## #   Source <chr>
…
