…
``` r
manydata::describe_datacube(manystates::states)
```

    ## [1] "The `manystates::states` datacube is a list containing 3 datasets: ISD, HUGGO, and GW"

``` r
manystates::states
```

    ## $ISD
    ## # A tibble: 482 × 35
    ##    stateID StateName StateName2 Begin End   Latitude Longitude StartType EndType
    ##    <chr>   <chr>     <chr>      <mda> <mda> <chr>    <chr>     <chr>     <chr>  
    ##  1 KOR     Korea     Koryo Cho… 0676  1905… 37 34 0… 126 58 0… 4         2      
    ##  2 CHI     Chien Kh… <NA>       0800? 1831… 19 25 0… 103 30 0… 2         2      
    ##  3 TON     Tonga     Kingdom O… 1100? 1900… 21 8 0 S 175 12 0… 4         1      
    ##  4 MNG     Mongolia  <NA>       1200? 2016… 47 55 1… 106 55 2… 2         <NA>   
    ##  5 BOH     Bohol     <NA>       1200? 1829… 9 54 0 N 124 12 0… <NA>      1      
    ##  6 ETH     Ethiopia  Abyssinia… 1270  1936… 14 07 2… 38 44 21… 6         2      
    ##  7 LWU     Luwu      Ware       1300  1906… 3 0 0 S  120 12 0… 1         1      
    ##  8 BON     Bone      <NA>       1300? 1905… 4 32 19… 120 19 4… 2         1      
    ##  9 MIN     Minangka… <NA>       1347  1837… 0 26 22… 100 40 9… 2         1      
    ## 10 IFE     Ile Ife   Ife Kingd… 1350? 1849… 7 29 25… 4 33 10.… 1         2      
    ## # ℹ 472 more rows
    ## # ℹ 26 more variables: cowID <chr>, cowNR <chr>, ISD_Category <chr>,
    ## #   Region <chr>, Start_Am <chr>, EStart_Am <chr>, Declare <chr>,
    ## #   DecDate <chr>, Population <chr>, PopDate <chr>, PopAm <chr>,
    ## #   PopulationHigh <chr>, PopulationLow <chr>, StartType_Am <chr>,
    ## #   StartSettle <chr>, End_Am <chr>, EndType_Am <chr>, EndSettle <chr>,
    ## #   Sovereignty_Am <chr>, EuroDip <chr>, Borders <chr>, Borders_Am <chr>, …
    ## 
    ## $HUGGO
    ## # A tibble: 470 × 14
    ##    stateID StateName  Capital    Begin     End   Latitude Longitude Constitution
    ##    <chr>   <chr>      <chr>      <mdate>   <mda> <chr>    <chr>     <chr>       
    ##  1 SMR     San Marino San Marino 0301-09-… 9999… 43.9367  12.4463   San Marino,…
    ##  2 BGR     Bulgaria   Sofia      0681-12-… 1018… 42.69751 23.32415  <NA>        
    ##  3 HRV     Croatia    Zagreb     0879-06-… 1102… 45.81444 15.97798  <NA>        
    ##  4 CHM     Chamba     Chamba     0920-01-… 1846… 32.5558  76.12592  <NA>        
    ##  5 DRV     Annam      Hue        0939-01-… 1883… 16.46667 107.6     <NA>        
    ##  6 HUN     Hungary    Budapest   1000-12-… 1526… 47.49801 19.03991  <NA>        
    ##  7 POL     Poland     Warsaw     1025-04-… 1795… 52.22977 21.01178  <NA>        
    ##  8 MMR     Myanmar    Rangoon    1044-01-… 1885… 16.80528 96.15611  As provided…
    ##  9 RWA     Ruanda     Kigali     1081-01-… 1890… -1.94995 30.05885  <NA>        
    ## 10 MPR     Manipur    Imphal     1110-01-… 1891… 24.80805 93.9442   <NA>        
    ## # ℹ 460 more rows
    ## # ℹ 6 more variables: RatProcedure <chr>, Area <chr>, Region <chr>,
    ## #   StateName2 <chr>, Capital2 <chr>, Source_rat <chr>
    ## 
    ## $GW
    ## # A tibble: 216 × 6
    ##    stateID Begin        End          StateName            cowID cowNR
    ##    <chr>   <mdate>      <mdate>      <chr>                <chr> <chr>
    ##  1 AFG     ..1816-01-01 1888-12-30   Afghanistan          AFG   700  
    ##  2 AFG     1919-05-01   2017-12-31.. Afghanistan          AFG   700  
    ##  3 AGO     1975-11-11   2017-12-31.. Angola               ANG   540  
    ##  4 ALB     1913-01-01   2017-12-31.. Albania              ALB   339  
    ##  5 ALG     ..1816-01-01 1830-07-05   Algeria              ALG   615  
    ##  6 ALG     1962-07-05   2017-12-31.. Algeria              ALG   615  
    ##  7 ARE     1971-12-02   2017-12-31.. United Arab Emirates UAE   696  
    ##  8 ARG     1816-07-09   2017-12-31.. Argentina            ARG   160  
    ##  9 ARM     1991-12-21   2017-12-31.. Armenia              ARM   371  
    ## 10 AUH     ..1816-01-01 1918-11-13   Austria-Hungary      AUH   300  
    ## # ℹ 206 more rows
…
