Extract CShapes data and matrix — extract_cshapes • qStates
…
import_distlist() imports and formats pre-computed
minimum distance matrix from the [cShapes] package.
Minimum distances are computed in three ways:
distances between capitals,
distances between centroids of the polygons,
minimum distances between the polygons in kilometers.

    Examples

# \donttest{
import_cshapes(date = "1900-01-01")

#> # A tibble: 42 x 11
#>    COW_Nr Beg        End        Label                  geometry Capital CapitalLong
#>    <chr>  <messydt>  <messydt>  <chr>        <MULTIPOLYGON [°]> <chr>         <dbl>
#>  1 100    1886-01-01 1903-11-02 Colo~ (((-78.1309 2.500494, -7~ Bogota      -74.1  
#>  2 101    1886-01-01 2019-12-31 Vene~ (((-60.82334 8.652364, -~ Caracas     -66.9  
#>  3 130    1886-01-01 1942-01-28 Ecua~ (((-78.80972 1.437782, -~ Quito       -78.5  
#>  4 135    1886-01-01 1909-07-08 Peru  (((-69.45264 -1.526036, ~ Lima        -77.1  
#>  5 140    1886-01-01 1903-11-16 Braz~ (((-53.3984 -33.74904, -~ Rio De~     -43.2  
#>  6 145    1886-01-01 1903-11-16 Boli~ (((-58.15889 -20.16805, ~ La Paz      -68.2  
#>  7 150    1886-01-01 1938-07-20 Para~ (((-54.59892 -25.57323, ~ Asunci~     -57.7  
#>  8 165    1886-01-01 2019-12-31 Urug~ (((-53.3984 -33.74904, -~ Montev~     -56.2  
#>  9 2      1886-01-01 1959-01-02 Unit~ (((-75.48306 35.34583, -~ Washin~     -77.0  
#> 10 200    1886-01-01 1921-12-05 Unit~ (((-7.252509 55.07059, -~ London       -0.117
#> # ... with 32 more rows, and 4 more variables: CapitalLat <dbl>,
#> #   WellDefinedBorders <int>, Status <dbl>, Owner <chr>
# }
# \donttest{
import_distlist(date = "1900-01-01", type = "capdist")

#> # A tibble: 1,764 x 5
#>    FromLabel     FromCode ToLabel            ToCode Distance
#>    <chr>            <dbl> <chr>               <dbl>    <dbl>
#>  1 United States        2 United States           2       0 
#>  2 United States        2 Haiti                  41    2302.
#>  3 United States        2 Dominican Republic     42    2367.
#>  4 United States        2 Mexico                 70    3029.
#>  5 United States        2 Guatemala              90    2998.
#>  6 United States        2 Honduras               91    2924.
#>  7 United States        2 El Salvador            92    3037.
#>  8 United States        2 Nicaragua              93    3101.
#>  9 United States        2 Colombia              100    3810.
#> 10 United States        2 Venezuela             101    3303.
#> # ... with 1,754 more rows
…
