Extract V-Dem and V-Party data — extract_vdem • manystates
…
    Details

    import_vdem() imports VDem 11.1 dataset
and formats them to a qVerse consistent output.

import_vparty() imports the V-Party dataset and formats it to
a qVerse consistent dataframe.

    Examples

# \donttest{
import_vdem()
#> # A tibble: 27,192 × 4,172
#>    VDem_ID Abbrv Label    Country Beg    End   Year  Date  codingstart codingend
#>      <dbl> <chr> <chr>    <chr>   <mess> <mes> <mes> <mes>       <dbl>     <dbl>
#>  1       3 MEX   Viceroy… Mexico  1789   1820  1789  1789…        1789      2020
#>  2       3 MEX   Viceroy… Mexico  1789   1820  1790  1790…        1789      2020
#>  3       3 MEX   Viceroy… Mexico  1789   1820  1791  1791…        1789      2020
#>  4       3 MEX   Viceroy… Mexico  1789   1820  1792  1792…        1789      2020
#>  5       3 MEX   Viceroy… Mexico  1789   1820  1793  1793…        1789      2020
#>  6       3 MEX   Viceroy… Mexico  1789   1820  1794  1794…        1789      2020
#>  7       3 MEX   Viceroy… Mexico  1789   1820  1795  1795…        1789      2020
#>  8       3 MEX   Viceroy… Mexico  1789   1820  1796  1796…        1789      2020
#>  9       3 MEX   Viceroy… Mexico  1789   1820  1797  1797…        1789      2020
#> 10       3 MEX   Viceroy… Mexico  1789   1820  1798  1798…        1789      2020
#> # … with 27,182 more rows, and 4,162 more variables: gapstart1 <dbl>,
#> #   gapstart2 <dbl>, gapstart3 <dbl>, gapend1 <dbl>, gapend2 <dbl>,
#> #   gapend3 <dbl>, gap_index <dbl>, COWcode <dbl>, v2x_polyarchy <dbl>,
#> #   v2x_polyarchy_codelow <dbl>, v2x_polyarchy_codehigh <dbl>,
#> #   v2x_polyarchy_sd <dbl>, v2x_libdem <dbl>, v2x_libdem_codelow <dbl>,
#> #   v2x_libdem_codehigh <dbl>, v2x_libdem_sd <dbl>, v2x_partipdem <dbl>,
#> #   v2x_partipdem_codelow <dbl>, v2x_partipdem_codehigh <dbl>, …
# }
# \donttest{
import_vparty()
#> # A tibble: 11,914 × 383
#> # Groups:   VParty_ID [3,489]
#>    VParty_ID Label    Abbrv Country  Country_hist   Country_ID Beg   End   Year 
#>        <dbl> <chr>    <chr> <chr>    <chr>               <dbl> <mes> <mes> <mes>
#>  1      4908 indepen… indep Afghani… Kingdom of Af…         36 1965  2010  1965 
#>  2      4908 indepen… indep Afghani… Kingdom of Af…         36 1965  2010  1969 
#>  3      4908 indepen… indep Afghani… Islamic Repub…         36 1965  2010  2005 
#>  4      4908 indepen… indep Afghani… Islamic Repub…         36 1965  2010  2010 
#>  5      5184 People'… HDK   Afghani… Democratic Re…         36 1988  1988  1988 
#>  6       190 Democra… PDS   Albania  Republic of A…         12 1991  2017  1991 
#>  7       190 Democra… PDS   Albania  Republic of A…         12 1991  2017  1992 
#>  8       190 Democra… PDS   Albania  Republic of A…         12 1991  2017  1996 
#>  9       190 Democra… PDS   Albania  Republic of A…         12 1991  2017  1997 
#> 10       190 Democra… PDS   Albania  Republic of A…         12 1991  2017  2001 
#> # … with 11,904 more rows, and 374 more variables: party_gaps <chr>,
#> #   country_text_id <chr>, historical_date <date>, codingstart <dbl>,
#> #   gapstart <dbl>, gapend <dbl>, codingend <dbl>, project <dbl>,
#> #   COWcode <int>, Geographic Region <int>, Geopolitical Region <int>,
#> #   e_regionpol_6C <int>, v2xpa_illiberal <dbl>, v2xpa_illiberal_codelow <dbl>,
#> #   v2xpa_illiberal_codehigh <dbl>, v2xpa_popul <dbl>,
#> #   v2xpa_popul_codelow <dbl>, v2xpa_popul_codehigh <dbl>, …
…
